dplyr: join
…
filter(deaths, countyFIPS == 1009)

# A tibble: 1 × 5
  countyFIPS county        state stateFIPS deaths
       <dbl> <chr>         <chr>     <dbl>  <dbl>
1       1009 Blount County AL            1      1

We want to combine the different variables from all 3 data frames together into a single one. We can’t just bind the columns together though, because the set of counties in each data set is different (some counties are missing from some datasets).

Example (we’ll talk through the code shortly):

cases %>%
  left_join(deaths, by="countyFIPS")

# A tibble: 2,830 × 9
   countyFIPS county.x    state.x stateFIPS.x cases county.y state.y stateFIPS.y
        <dbl> <chr>       <chr>         <dbl> <dbl> <chr>    <chr>         <dbl>
 1          1 New York C… NY               36     0 New Yor… NY               36
 2       1001 Autauga Co… AL                1   644 Autauga… AL                1
 3       1005 Barbour Co… AL                1   360 Barbour… AL                1
 4       1007 Bibb County AL                1   199 Bibb Co… AL                1
 5       1009 Blount Cou… AL                1   255 Blount … AL                1
 6       1011 Bullock Co… AL                1   373 Bullock… AL                1
 7       1013 Butler Cou… AL                1   634 Butler … AL                1
 8       1015 Calhoun Co… AL                1   395 Calhoun… AL                1
 9       1017 Chambers C… AL                1   656 Chamber… AL                1
10       1019 Cherokee C… AL                1   106 Cheroke… AL                1
# ℹ 2,820 more rows
# ℹ 1 more variable: deaths <dbl>

We also have a data set with state level data on COVID deaths. We might want to add this state level info to each county. In that case, you could use the state name to pull the correct state data from the data set for each row in the county data set.

# We'll talk through the code more below
cases %>%
  left_join(state_stats, by=c("state"="State"))

# A tibble: 2,830 × 32
   countyFIPS county        state stateFIPS cases   Date Cases_Total Cases_White
        <dbl> <chr>         <chr>     <dbl> <dbl>  <dbl>       <dbl>       <dbl>
 1          1 New York Cit… NY           36     0 2.02e7      397131          NA
 2       1001 Autauga Coun… AL            1   644 2.02e7       43953       14864
 3       1005 Barbour Coun… AL            1   360 2.02e7       43953       14864
 4       1007 Bibb County   AL            1   199 2.02e7       43953       14864
 5       1009 Blount County AL            1   255 2.02e7       43953       14864
 6       1011 Bullock Coun… AL            1   373 2.02e7       43953       14864
 7       1013 Butler County AL            1   634 2.02e7       43953       14864
 8       1015 Calhoun Coun… AL            1   395 2.02e7       43953       14864
 9       1017 Chambers Cou… AL            1   656 2.02e7       43953       14864
10       1019 Cherokee Cou… AL            1   106 2.02e7       43953       14864
# ℹ 2,820 more rows
# ℹ 24 more variables: Cases_Black <dbl>, Cases_LatinX <dbl>,
#   Cases_Asian <dbl>, Cases_AIAN <dbl>, Cases_NHPI <dbl>,
#   Cases_Multiracial <dbl>, Cases_Other <dbl>, Cases_Unknown <dbl>,
#   Cases_Ethnicity_Hispanic <dbl>, Cases_Ethnicity_NonHispanic <dbl>,
#   Cases_Ethnicity_Unknown <dbl>, Deaths_Total <dbl>, Deaths_White <dbl>,
#   Deaths_Black <dbl>, Deaths_LatinX <dbl>, Deaths_Asian <dbl>, …
…
